Lab 1: Census Data Quality for Policy Decisions
…
Your Task: Use your analysis results to provide specific guidance to the department.

Counties suitable for immediate algorithmic implementation: [List counties with high confidence data and explain why they’re appropriate

Counties requiring additional oversight: [List counties with moderate confidence data and describe what kind of monitoring would be needed]

Counties needing alternative approaches: [List counties with low confidence data and suggest specific alternatives - manual review, additional surveys, etc.]

high_confidence_counties <- county_reliability %>%
  filter(confidence == "high") %>%
  select(county)
print(high_confidence_counties)

# A tibble: 21 × 1
   county      
   <chr>       
 1 Benton      
 2 Clallam     
 3 Clark       
 4 Cowlitz     
 5 Douglas     
 6 Grays Harbor
 7 Island      
 8 King        
 9 Kitsap      
10 Kittitas    
# ℹ 11 more rows
…
